Analyse der Wahlresultate von den Nationalratswahlen von 1991 bis 2023
…
    Author

             Barbara Sutter 

library(tidyverse)
library(dplyr)
library(ggplot2)
library(forcats)
library(ggthemes)
library(knitr)

read_csv2(here::here("daten/raw/sd-t-17.02-NRW2023-zeitreihen-parteien-APPENDIX (1).csv"))

# A tibble: 1,885 × 20
   wahl_jahr ebene_resultat geoLevelName kanton_nummer kanton_bezeichnung
       <dbl> <chr>          <chr>                <dbl> <chr>             
 1      1991 Schweiz        Schweiz                 NA <NA>              
 2      1991 Schweiz        Schweiz                 NA <NA>              
 3      1991 Schweiz        Schweiz                 NA <NA>              
 4      1991 Schweiz        Schweiz                 NA <NA>              
 5      1991 Schweiz        Schweiz                 NA <NA>              
 6      1991 Schweiz        Schweiz                 NA <NA>              
 7      1991 Schweiz        Schweiz                 NA <NA>              
 8      1991 Schweiz        Schweiz                 NA <NA>              
 9      1991 Schweiz        Schweiz                 NA <NA>              
10      1991 Schweiz        Schweiz                 NA <NA>              
# ℹ 1,875 more rows
# ℹ 15 more variables: partei_id <dbl>, partei_bezeichnung_de <chr>,
#   partei_bezeichnung_fr <chr>, partei_bezeichnung_it <chr>,
#   partei_bezeichnung_en <chr>, partei_staerke <chr>,
#   flag_staerkste_partei <dbl>, anzahl_listen <dbl>,
#   anzahl_kandidierende <dbl>, anzahl_kandidierende_f <dbl>,
#   anzahl_kandidierende_m <dbl>, anzahl_gewaehlte <dbl>, …

read_delim(here::here("daten/raw/sd-t-17.02-NRW2023-zeitreihen-parteien-APPENDIX (1).csv"), delim = ";")

# A tibble: 1,885 × 20
   wahl_jahr ebene_resultat geoLevelName kanton_nummer kanton_bezeichnung
       <dbl> <chr>          <chr>                <dbl> <chr>             
 1      1991 Schweiz        Schweiz                 NA <NA>              
 2      1991 Schweiz        Schweiz                 NA <NA>              
 3      1991 Schweiz        Schweiz                 NA <NA>              
 4      1991 Schweiz        Schweiz                 NA <NA>              
 5      1991 Schweiz        Schweiz                 NA <NA>              
 6      1991 Schweiz        Schweiz                 NA <NA>              
 7      1991 Schweiz        Schweiz                 NA <NA>              
 8      1991 Schweiz        Schweiz                 NA <NA>              
 9      1991 Schweiz        Schweiz                 NA <NA>              
10      1991 Schweiz        Schweiz                 NA <NA>              
# ℹ 1,875 more rows
# ℹ 15 more variables: partei_id <dbl>, partei_bezeichnung_de <chr>,
#   partei_bezeichnung_fr <chr>, partei_bezeichnung_it <chr>,
#   partei_bezeichnung_en <chr>, partei_staerke <dbl>,
#   flag_staerkste_partei <dbl>, anzahl_listen <dbl>,
#   anzahl_kandidierende <dbl>, anzahl_kandidierende_f <dbl>,
#   anzahl_kandidierende_m <dbl>, anzahl_gewaehlte <dbl>, …
…
# dasselbe wird danach auch für das Wahljahr 2023 auf nationaler Ebene erstellt

NRW2023_CH_2023 <- NRW2023_zeitreihe_CH |> 
  filter(wahl_jahr == "2023")

# Die CVP und die Mitte-Partei wird über den gesamten Datensatz in CVP/Mitte umbenannt, sodass die Daten vergleichbar bleiben.

NRW2023_zeitreihe_Kanton |> 
  mutate(partei_bezeichnung_de = case_when(
    partei_bezeichnung_de == "CVP" ~ "CVP/Mitte",
    partei_bezeichnung_de == "Mitte" ~ "CVP/Mitte",
    .default = partei_bezeichnung_de
  ))

# A tibble: 1,745 × 16
   wahl_jahr ebene_resultat kanton_nummer kanton_bezeichnung partei_id
       <dbl> <chr>                  <dbl> <chr>                  <dbl>
 1      1991 Kanton                     1 Zürich                     1
 2      1991 Kanton                     1 Zürich                     2
 3      1991 Kanton                     1 Zürich                     3
 4      1991 Kanton                     1 Zürich                     4
 5      1991 Kanton                     1 Zürich                     6
 6      1991 Kanton                     1 Zürich                     7
 7      1991 Kanton                     1 Zürich                    12
 8      1991 Kanton                     1 Zürich                    13
 9      1991 Kanton                     1 Zürich                    14
10      1991 Kanton                     1 Zürich                    16
# ℹ 1,735 more rows
# ℹ 11 more variables: partei_bezeichnung_de <chr>, partei_staerke <dbl>,
#   flag_staerkste_partei <dbl>, anzahl_listen <dbl>,
#   anzahl_kandidierende <dbl>, anzahl_kandidierende_f <dbl>,
#   anzahl_kandidierende_m <dbl>, anzahl_gewaehlte <dbl>,
#   anzahl_gewaehlte_f <dbl>, anzahl_gewaehlte_m <dbl>, frauen_anteil <dbl>
…
